package de.ipa.saa.crp 
import de.ipa.saa.data.CommonBaseEvent
import de.ipa.saa.data.ItemAttribute
import de.ipa.saa.util.ActionEvent
declare CommonBaseEvent
@role( fact )
end
rule "GripperMaintenance"
dialect "java"
when
$cbe0 : CommonBaseEvent(Identifier == 44121 && $cbe0.getAttribute("Message").getValue().equals("MAINTENANCE"))

then
System.out.println("GripperMaintenance fired");
// Send message to user
//ActionEvent event = new ActionEvent("unnamed","http://192.168.0.11:4411/");
//event.sendActionPOST($cbe.getAttribute("JsonString").getValue().toString());
end
